{
  "$schema": "https://vega.github.io/schema/vega-lite/v5.json",
  "data": {
    "url": "data.json"
  },
  "mark": {
    "type": "line",
    "point": true,
    "strokeWidth": 5,
    "size": 5
  },
  "width": 1000,
  "height": 600,
  "padding": 20,
  "config": {
    "axis": { "labelFontSize": 32, "titleFontSize": 32, "maxExtent": 1000, "titleLimit": 0, "labelLimit": 0, "grid": false, "titlePadding": 20 },
    "legend": { "labelLimit": 0, "labelFontSize": 32, "titleFontSize": 32 },
    "header": { "labelLimit": 0, "labelFontSize": 32, "titleFontSize": 32 },
    "mark": { "fontSize": 32, "limit": 0  },
    "title": { "fontSize": 32, "limit": 0  }
  },
  "encoding": {
    "x": {
      "title": "Number of callables",
      "field": "test",
      "type": "quantitative",
      "sort":"ascending",
      "axis": {"labelAngle": -90}
    },
    "y": {
      "title": "Code Size (bytes)",
      "aggregate": "sum",
      "type":"quantitative",
      "field": "size"
    },
    "color": {
      "field": "tag",
      "type": "nominal",
      "title": null,
      "legend": {
        "orient": "bottom-right"
      },
      "scale": {"scheme": "category10"}
    }
  }
}